…
``` r
MUT2 <- MUT %>% 
    mutate(NormS = Subs %in% VecOfNormalSubstitutions) %>%
    group_by(Species) %>% 
    summarise(prop_of_normal = mean(NormS))
MUT2
```

    ## # A tibble: 2,404 x 2
    ##    Species                 prop_of_normal
    ##    <chr>                            <dbl>
    ##  1 Abbottina_obtusirostris          1.00 
    ##  2 Abbottina_rivularis              1.00 
    ##  3 Abramis_brama                    1.00 
    ##  4 Abrothrix_longipilis             1.00 
    ##  5 Abrothrix_olivaceus              0.800
    ##  6 Abudefduf_saxatilis              0.800
    ##  7 Abudefduf_sparoides              1.00 
    ##  8 Abudefduf_vaigiensis             1.00 
    ##  9 Acanthocybium_solandri           0.946
    ## 10 Acanthogobius_hasta              1.00 
    ## # ... with 2,394 more rows
…
